{
  "version" : "3.1",
  "softwareId" : "com.domain.division.team.product",
  "tax1098" : {
    "lenderNameAddress" : {
      "line1" : "line1",
      "line2" : "line2",
      "line3" : "line3",
      "city" : "city",
      "state" : "state",
      "postalCode" : "postalCode",
      "name1" : "name1",
      "name2" : "name2",
      "phone" : {
        "number" : "number",
        "extension" : "extension"
      }
    },
    "lenderTin" : "lenderTin",
    "borrowerTin" : "borrowerTin",
    "borrowerNameAddress" : {
      "line1" : "line1",
      "line2" : "line2",
      "line3" : "line3",
      "city" : "city",
      "state" : "state",
      "postalCode" : "postalCode",
      "name1" : "name1",
      "name2" : "name2"
    },
    "mortgagedProperties" : 2000,
    "otherInformation" : "otherInformation",
    "accountNumber" : "accountNumber",
    "mortgageInterest" : 1000.0,
    "outstandingPrincipal" : 1000.0,
    "originationDate" : "20190401",
    "overpaidRefund" : 1000.0,
    "mortgageInsurance" : 1000.0,
    "pointsPaid" : 1000.0,
    "isPropertyAddressSameAsBorrowerAddress" : true,
    "acquisitionDate" : "20190401",
    "propertyAddress" : {
      "line1" : "line1",
      "line2" : "line2",
      "line3" : "line3",
      "city" : "city",
      "state" : "state",
      "postalCode" : "postalCode"
    },
    "propertyTax" : 1000.0,
    "propertyDescription" : "propertyDescription"
  }
}