{
  "version" : "3.1",
  "softwareId" : "com.domain.division.team.product",
  "tax1099Oid" : {
    "payerNameAddress" : {
      "line1" : "line1",
      "line2" : "line2",
      "line3" : "line3",
      "city" : "city",
      "state" : "state",
      "postalCode" : "postalCode",
      "name1" : "name1",
      "name2" : "name2",
      "phone" : {
        "number" : "number",
        "extension" : "extension"
      }
    },
    "payerTin" : "payerTin",
    "recipientTin" : "recipientTin",
    "recipientNameAddress" : {
      "line1" : "line1",
      "line2" : "line2",
      "line3" : "line3",
      "city" : "city",
      "state" : "state",
      "postalCode" : "postalCode",
      "name1" : "name1",
      "name2" : "name2"
    },
    "foreignAccountTaxCompliance" : true,
    "accountNumber" : "accountNumber",
    "originalIssueDiscount" : 1000.0,
    "otherPeriodicInterest" : 1000.0,
    "earlyWithdrawalPenalty" : 1000.0,
    "federalTaxWithheld" : 1000.0,
    "marketDiscount" : 1000.0,
    "acquisitionPremium" : 1000.0,
    "description" : "description",
    "discountOnTreasuryObligations" : 1000.0,
    "investmentExpenses" : 1000.0,
    "bondPremium" : 1000.0,
    "taxExemptOid" : 1000.0,
    "stateTaxWithholding" : [ {
      "stateTaxWithheld" : 100.0,
      "state" : "state",
      "stateTaxId" : "stateTaxId",
      "stateIncome" : 100.0
    } ],
    "stateExemptOid" : [ {
      "description" : "description",
      "amount" : 100.0
    } ]
  }
}